<?xml version="1.0" encoding="UTF-8" standalone="no"?>
<svg
   xmlns:dc="http://purl.org/dc/elements/1.1/"
   xmlns:cc="http://creativecommons.org/ns#"
   xmlns:rdf="http://www.w3.org/1999/02/22-rdf-syntax-ns#"
   xmlns:svg="http://www.w3.org/2000/svg"
   xmlns="http://www.w3.org/2000/svg"
   xmlns:sodipodi="http://sodipodi.sourceforge.net/DTD/sodipodi-0.dtd"
   xmlns:inkscape="http://www.inkscape.org/namespaces/inkscape"
   viewBox="0 0 92.750786 97.301009"
   version="1.1"
   id="svg7473"
   sodipodi:docname="system-users.svg"
   inkscape:version="1.0.2 (e86c870879, 2021-01-15)"
   width="92.750786"
   height="97.30101">
  <metadata
     id="metadata7477">
    <rdf:RDF>
      <cc:Work
         rdf:about="">
        <dc:format>image/svg+xml</dc:format>
        <dc:type
           rdf:resource="http://purl.org/dc/dcmitype/StillImage" />
        <dc:title />
      </cc:Work>
    </rdf:RDF>
  </metadata>
  <sodipodi:namedview
     pagecolor="#ffffff"
     bordercolor="#666666"
     borderopacity="1"
     objecttolerance="10"
     gridtolerance="10"
     guidetolerance="10"
     inkscape:pageopacity="0"
     inkscape:pageshadow="2"
     inkscape:window-width="2550"
     inkscape:window-height="1416"
     id="namedview7475"
     showgrid="false"
     inkscape:zoom="10.429825"
     inkscape:cx="8.7192041"
     inkscape:cy="50.479853"
     inkscape:window-x="0"
     inkscape:window-y="0"
     inkscape:window-maximized="0"
     inkscape:current-layer="svg7473"
     inkscape:document-rotation="0" />
  <defs
     id="defs3051">
    <style
       type="text/css"
       id="current-color-scheme">
      .ColorScheme-Text {
        color:#eff0f1;
      }
      </style>
  </defs>
  <g
     id="g837"
     transform="matrix(2.6751184,0,0,3.7721759,4.2122773,-12.804219)">
    <path
       style="color:#eff0f1;fill:#ff6600;fill-opacity:0.987603;stroke:none;stroke-width:1.8;stroke-miterlimit:4;stroke-dasharray:none;stroke-opacity:1"
       d="m 26,4 -4,4 -1,1 5,5 0.707031,-2.70703 L 24.914062,9.5 H 32 V 8.46875 l -7.085938,0.0312 1.792969,-1.79297 z M 15.5,9 C 13.014719,9 9,11.01472 9,13.5 9,15.98528 13.014719,18 15.5,18 17.985281,18 22,15.98528 22,13.5 22,11.01472 17.985281,9 15.5,9 Z m 0,3 C 17.432997,12 19,11.567 19,13.5 19,15.433 17.432997,15 15.5,15 13.567003,15 12,15.433 12,13.5 12,11.567 13.567003,12 15.5,12 Z m 0,5 C 11.357864,17 8,22.58172 8,27 v 1 H 23 V 27 C 23,22.58172 19.642136,17 15.5,17 Z m 0,5 c 3.589851,0 4.5,1.13401 4.5,5 h -9 c 0,-3.86599 0.910149,-5 4.5,-5 z"
       class="ColorScheme-Text"
       id="path7471"
       inkscape:connector-curvature="0"
       sodipodi:nodetypes="cccccccccccssssssssssssccsssccs" />
    <path
       style="color:#eff0f1;fill:#00ff00;fill-opacity:0.987603;stroke:none;stroke-width:1.8;stroke-miterlimit:4;stroke-dasharray:none;stroke-opacity:1"
       d="m 17.661017,4.3389831 -4,3.9999999 -1,1 5.135593,5.271186 0.774828,-2.639233 L 16.575079,9.838983 24,9.9406779 V 8.46875 l -7.424921,0.370183 1.792969,-1.7929699 z m -10.5,4.9999999 c -2.4852811,0 -6.5000001,2.01472 -6.5000001,4.5 0,2.48528 4.014719,4.5 6.5000001,4.5 2.485281,0 6.5,-2.01472 6.5,-4.5 0,-2.48528 -4.014719,-4.5 -6.5,-4.5 z m 0,3 c 1.932997,0 3.5,-0.433 3.5,1.5 0,1.933 -1.567003,1.5 -3.5,1.5 -1.9329971,0 -3.5000001,0.433 -3.5000001,-1.5 0,-1.933 1.567003,-1.5 3.5000001,-1.5 z m 0,5 c -4.1421361,0 -7.5000001,5.58172 -7.5000001,10 v 1.101695 H 14.966102 V 27.40678 c 0,-4.41828 -3.662949,-10.067797 -7.805085,-10.067797 z m 0,5 c 3.589851,0 4.5,1.13401 4.5,5 H 2.6610169 c 0,-3.86599 0.910149,-5 4.5000001,-5 z"
       class="ColorScheme-Text"
       id="path7471-3"
       inkscape:connector-curvature="0"
       sodipodi:nodetypes="cccccccccccssssssssssssccsssccs" />
  </g>
</svg>
